customer_id,favorite_cuisine
307,American
988,Thai
633,
896,Chinese
738,Chinese
555,American
150,
114,Chinese
659,American
340,
149,Mexican
112,Japanese
164,Mexican
689,Thai
540,American
246,Mexican
527,
346,Japanese
843,
916,Thai
310,Indian
62,Japanese
45,Chinese
902,Thai
855,Chinese
256,American
872,Indian
237,
666,Chinese
232,Thai
526,Indian
459,Thai
382,American
563,Chinese
73,
961,American
847,American
336,Japanese
964,
706,
714,American
193,Japanese
971,Thai
403,Chinese
407,Italian
592,Chinese
897,
235,
789,Indian
397,American
959,Italian
705,Mexican
954,
655,American
26,Mexican
586,Thai
578,American
662,
911,Mexican
267,
984,Thai
886,Thai
995,Chinese
732,
57,
94,Indian
923,Italian
611,Japanese
165,Thai
768,Italian
647,Thai
202,
197,Indian
842,Italian
623,Mexican
698,Japanese
309,American
888,Mexican
314,American
882,Chinese
717,Chinese
566,American
100,Chinese
222,Japanese
605,
192,Mexican
201,American
750,Thai
512,Indian
674,American
370,Japanese
103,
613,Japanese
929,
948,
160,
642,Thai
362,
631,Japanese
803,American
932,Italian
250,
415,
785,Chinese
463,Chinese
486,Thai
516,Chinese
311,Mexican
917,
284,Thai
82,Chinese
957,Japanese
418,
144,
598,Indian
520,American
521,Indian
277,Indian
453,Mexican
787,Chinese
774,Thai
34,
83,Mexican
675,Japanese
408,Italian
390,Italian
874,
889,American
569,American
776,Mexican
379,Thai
661,
356,Japanese
800,
410,
549,Japanese
679,American
645,Mexican
180,Thai
470,American
951,Japanese
178,
756,Chinese
704,American
554,Chinese
39,Indian
514,Chinese
182,Thai
452,American
509,Mexican
198,Chinese
821,Italian
477,Indian
825,Indian
996,Mexican
603,Italian
858,Italian
982,Thai
151,
735,American
158,Mexican
680,Chinese
804,Thai
517,Chinese
361,Mexican
365,American
912,Italian
395,Thai
983,
207,Italian
870,Thai
852,
950,Italian
368,Japanese
472,Indian
199,
712,Japanese
814,Indian
323,
815,Italian
673,Japanese
211,
488,Thai
683,
582,
317,
755,Indian
884,
737,Mexican
762,Japanese
163,American
949,Indian
35,Indian
568,
952,Japanese
857,American
650,Japanese
449,Chinese
414,
497,
794,
332,American
348,Thai
458,
958,American
830,Thai
139,
268,American
687,
244,Indian
240,Indian
528,
194,Mexican
86,Thai
608,
854,Mexican
116,Mexican
371,American
96,Italian
944,Mexican
742,Mexican
422,
826,American
285,Thai
110,Japanese
837,Italian
901,Japanese
994,Chinese
243,Japanese
40,Mexican
76,
283,Mexican
781,Thai
386,Mexican
257,Mexican
811,Japanese
421,
652,
417,Japanese
121,American
271,Indian
634,Indian
524,Chinese
25,American
295,Indian
660,Mexican
123,Thai
500,
539,
6,Thai
70,Thai
824,Indian
713,American
124,
468,
127,
1,American
233,Chinese
993,Mexican
867,Italian
796,Thai
430,Thai
187,Japanese
626,Thai
206,
388,Chinese
434,Japanese
900,Thai
561,Thai
511,Italian
657,
238,Mexican
391,Mexican
891,Italian
17,American
377,Chinese
716,Italian
326,Mexican
778,
113,American
552,Japanese
344,
501,
97,Italian
471,
212,American
355,Chinese
171,Italian
13,
490,Japanese
664,Indian
42,Indian
264,Thai
209,Indian
400,Indian
72,Mexican
230,Indian
405,
938,Mexican
304,American
677,Japanese
60,Italian
425,American
728,Japanese
729,Mexican
643,Japanese
366,Indian
133,Thai
798,Thai
761,American
930,Thai
636,
537,
859,Italian
92,Indian
248,
678,Mexican
231,American
823,
375,Indian
260,
159,Italian
439,Mexican
239,Italian
402,American
587,Indian
481,
423,American
844,Indian
557,Chinese
772,Japanese
816,Italian
809,American
558,Japanese
406,
401,Indian
140,
589,Chinese
757,Thai
208,Thai
175,Italian
251,Indian
446,
544,Italian
339,
245,Italian
338,Indian
205,Japanese
299,American
279,Italian
321,Thai
987,Italian
369,
79,
506,Mexican
483,
654,Japanese
489,
692,Mexican
639,American
358,Indian
456,Mexican
16,Japanese
869,Mexican
904,Thai
498,Japanese
576,Thai
115,
907,Mexican
7,Indian
431,Mexican
153,Italian
105,Thai
109,Italian
765,Mexican
225,Japanese
492,American
941,Indian
424,American
614,Mexican
215,American
335,Japanese
214,Chinese
293,
354,Indian
615,American
976,American
69,American
131,Thai
166,Mexican
910,Mexican
176,Italian
828,
937,Chinese
71,
234,American
276,Mexican
389,Indian
157,Chinese
523,Japanese
345,Japanese
312,Japanese
883,American
413,Mexican
107,Thai
723,American
275,
601,Japanese
890,Mexican
54,Italian
530,Chinese
374,Thai
204,Indian
213,
671,American
162,
780,
708,Mexican
835,Japanese
50,
189,
963,
986,Italian
749,
638,Indian
691,Mexican
887,Thai
363,
495,
799,
575,Indian
21,American
747,Japanese
871,Italian
119,Thai
384,Chinese
797,Mexican
752,
980,Chinese
777,Mexican
617,Italian
420,Mexican
594,Thai
597,Indian
350,Mexican
583,Mexican
784,Mexican
508,Indian
892,American
482,Thai
217,
219,
688,Italian
130,Indian
565,Italian
515,Indian
51,
593,Thai
529,
504,Indian
584,American
327,
620,Mexican
93,Italian
474,Mexican
701,Japanese
567,
998,
135,
478,Indian
263,Mexican
77,Chinese
364,
962,Thai
676,American
357,Indian
316,Italian
977,Italian
241,American
31,American
684,Japanese
782,
49,
644,Thai
875,
37,Indian
934,
893,Mexican
437,Italian
629,Thai
591,Chinese
953,Italian
170,Mexican
380,Mexican
385,Mexican
974,American
936,Mexican
302,Italian
14,
469,Indian
24,Japanese
126,American
496,American
148,Mexican
827,Indian
475,Japanese
9,Mexican
0,Japanese
8,
532,
507,Indian
64,Chinese
419,
87,
254,Chinese
342,Japanese
632,Italian
156,
229,
795,
560,Thai
381,
47,Mexican
879,
730,Chinese
61,Japanese
624,
622,Italian
221,
313,Japanese
972,
210,Chinese
108,
694,
372,Thai
856,Chinese
518,American
833,
373,Indian
990,Japanese
499,
427,Indian
435,Mexican
396,
878,
322,
308,
599,Italian
318,Japanese
931,Italian
667,Chinese
269,
195,
822,
38,
298,American
545,Mexican
731,Italian
790,
807,American
572,Chinese
15,American
744,Indian
863,Thai
218,Mexican
851,Chinese
813,Japanese
925,Italian
22,Indian
433,Mexican
41,Italian
337,
924,Italian
462,Indian
349,
242,Italian
625,
80,Chinese
791,Thai
880,Italian
66,Japanese
152,Mexican
85,Mexican
181,Japanese
480,American
125,
967,Mexican
359,Indian
249,Thai
286,Indian
292,American
759,Mexican
102,Thai
609,
412,
303,Chinese
965,Mexican
806,
845,Mexican
510,
877,
502,Indian
84,Chinese
455,Indian
494,Japanese
628,Chinese
663,Thai
252,Italian
899,Indian
685,Thai
440,Indian
146,Italian
10,
288,Thai
287,Mexican
467,
602,Japanese
906,American
120,
693,Thai
143,
770,American
48,Indian
457,
236,Japanese
670,Japanese
464,Japanese
763,Italian
454,American
226,Japanese
145,Mexican
966,Italian
111,Mexican
329,Indian
607,Japanese
75,
228,
155,American
173,Thai
142,Chinese
541,
450,
969,Italian
101,Italian
920,American
719,Italian
448,Japanese
168,
724,Chinese
186,American
722,American
289,Chinese
428,Thai
274,Japanese
741,Chinese
985,Mexican
754,Mexican
627,
272,
834,Italian
543,Italian
975,Italian
903,
849,
5,Mexican
411,Thai
118,Mexican
909,Italian
921,
726,Chinese
320,Mexican
547,Chinese
818,American
505,Mexican
46,
581,
860,Italian
805,
324,Indian
132,Japanese
681,American
740,Thai
590,American
63,American
956,Mexican
927,Italian
992,Thai
68,Chinese
635,Indian
928,
426,American
343,Chinese
392,Thai
465,
812,Mexican
44,American
259,Thai
328,Japanese
534,Indian
305,American
203,Mexican
74,Italian
831,Indian
280,Mexican
947,Mexican
696,Indian
525,Italian
846,Chinese
682,Mexican
618,
573,American
262,Indian
718,American
447,Italian
129,
473,Chinese
542,Japanese
758,Chinese
721,Mexican
940,Mexican
190,American
137,
641,
997,Chinese
220,American
580,
720,
352,Mexican
33,
733,
861,
191,Japanese
432,Mexican
745,Italian
294,Mexican
383,Indian
393,American
20,Chinese
786,Chinese
266,
739,Thai
258,Chinese
604,
864,
538,Italian
836,Mexican
978,American
725,Indian
743,Thai
261,American
442,
734,Indian
301,Japanese
341,American
291,Mexican
881,Japanese
334,
810,Chinese
968,
922,American
333,Thai
387,American
81,American
179,
19,
436,Chinese
600,
330,American
300,Chinese
99,
736,
136,Italian
788,Mexican
773,Japanese
88,Italian
353,
65,Indian
783,
819,Thai
491,Italian
748,Thai
398,American
894,American
479,Italian
297,Chinese
536,Chinese
873,American
767,
216,
853,Italian
553,Japanese
522,Japanese
898,Mexican
876,Thai
801,American
564,Chinese
196,Italian
2,American
30,Italian
751,Indian
991,Japanese
779,Italian
55,Mexican
28,Japanese
53,Indian
172,Indian
416,Indian
535,Japanese
648,Italian
169,American
27,
905,Italian
908,Italian
914,Italian
281,American
493,Italian
579,Japanese
460,Italian
656,Mexican
933,Japanese
11,Indian
95,Mexican
926,
59,Indian
918,Chinese
658,Japanese
711,Mexican
793,Italian
438,Mexican
769,American
960,Japanese
612,Indian
839,American
36,Indian
90,Thai
404,Chinese
306,Thai
315,Japanese
981,Mexican
653,Italian
913,Mexican
282,Indian
147,Thai
43,Mexican
556,
12,Mexican
296,
820,
270,Mexican
771,American
935,
122,
177,Indian
58,American
550,Italian
533,Indian
360,Chinese
955,Japanese
621,Mexican
973,Mexican
946,Japanese
91,Indian
574,Indian
651,Japanese
775,Japanese
56,Mexican
700,
710,American
548,
669,Mexican
709,American
942,
513,Italian
895,
640,
865,Japanese
378,
290,Indian
3,
559,
487,
174,
223,Mexican
668,Thai
792,Mexican
686,
18,American
571,Thai
840,Indian
850,Thai
919,Chinese
606,Japanese
154,Thai
616,Chinese
394,Thai
637,American
444,
866,
970,
915,Japanese
727,Mexican
939,
979,Japanese
596,American
325,Chinese
319,Mexican
443,Indian
265,Thai
185,Italian
595,Italian
347,Chinese
848,
690,Italian
167,Thai
98,Italian
52,Indian
104,
838,American
484,American
753,Thai
476,
764,Indian
4,Japanese
546,Indian
161,Mexican
200,Indian
255,Indian
672,Thai
715,Japanese
29,Thai
184,
585,Chinese
273,Chinese
451,American
999,
138,Mexican
562,Thai
278,Indian
802,
699,Indian
588,Mexican
141,Thai
841,Thai
862,
117,
441,Thai
32,Mexican
868,American
577,Thai
23,Indian
224,Chinese
485,Thai
247,Italian
646,Thai
531,Mexican
619,Thai
188,Indian
989,
445,Italian
817,Japanese
519,Chinese
253,Chinese
429,Italian
570,Italian
630,American
551,Chinese
461,Japanese
106,
697,Japanese
503,
703,
409,Mexican
78,Italian
610,American
466,
376,Chinese
829,
367,Thai
89,Thai
665,Chinese
746,Chinese
808,American
766,
695,Indian
128,American
702,Thai
67,Italian
183,Indian
832,
945,Chinese
227,Mexican
943,Indian
760,Chinese
885,
351,Thai
134,
331,Thai
399,
649,American
707,Japanese